{
    "digitRnn": [
        "#!/usr/bin/env python\n# coding: utf-8\n",
        "import tensorflow as tf\nfrom tensorflow.keras.models import Sequential\nfrom tensorflow.keras.layers import Dense, Dropout, LSTM, SimpleRNN\nimport matplotlib.pyplot as plt\n",
        "mnist = tf.keras.datasets.mnist\n(x_train, y_train),(x_test, y_test) = mnist.load_data()\nx_train1=x_train/255.0\nx_test1=x_test/255.0\n",
        "print(x_train1.shape)\n",
        "model=Sequential()\nmodel.add(SimpleRNN(128, input_shape=(28,28),return_sequences=True))\nmodel.add(Dropout(0.2))\nmodel.add(SimpleRNN(128))\nmodel.add(Dropout(0.2))\nmodel.add(Dense(32,activation='relu'))\nmodel.add(Dropout(0.2))\nmodel.add(Dense(10,activation='softmax'))\nmodel.summary()\n",
        "model.compile(loss=\"sparse_categorical_crossentropy\",\noptimizer=\"sgd\",\nmetrics=[\"accuracy\"])\n",
        "model_history = model.fit(x_train1,y_train,epochs=3,validation_data=(x_test1,y_test))\n",
        "scores=model.evaluate(x_test,y_test,verbose=0)\nprint(\"Accuracy: %.2f%%\" %(scores[1]*100))\n# loss, accuracy = model.evaluate(x_test, y_train,verbose=0 )\n# print(\"Training Accuracy : \", format(accuracy))\n",
        "# plot loss\nprint(model_history.history.keys())\nhistory_dict= model_history.history\nplt.subplot(2, 1, 1)\nplt.title('Cross Entropy Loss')\nplt.plot(history_dict['loss'], color='blue', label='train')\nplt.plot(history_dict['val_loss'], color='orange', label='test')\n# plot accuracy\nplt.subplot(2, 1, 2)\nplt.title('Classification Accuracy')\nplt.plot(history_dict['accuracy'], color='blue', label='train')\nplt.plot(history_dict['val_accuracy'], color='orange', label='test')\nplt.show()\n",
        "#implementing LSTM\nmodel2=Sequential()\nmodel2.add(LSTM(128, input_shape=(28,28),return_sequences=True))\nmodel2.add(Dropout(0.2))\nmodel2.add(LSTM(128))\nmodel2.add(Dropout(0.2))\nmodel2.add(Dense(32,activation='relu'))\nmodel2.add(Dropout(0.2))\nmodel2.add(Dense(10,activation='softmax'))\nmodel2.summary()\n",
        "model2.compile(loss=\"sparse_categorical_crossentropy\",\noptimizer=\"sgd\",\nmetrics=[\"accuracy\"])\n",
        "model2_history = model2.fit(x_train1,y_train,epochs=3,validation_data=(x_test1,y_test))\n"
    ],
    "imdbPretrainedGlove": [
        "#!/usr/bin/env python\n# coding: utf-8\n",
        "from tensorflow.keras.models import *\nfrom tensorflow.keras.layers import *\nfrom tensorflow.keras.datasets import imdb\nfrom tensorflow.keras.preprocessing.sequence import pad_sequences\nimport numpy as np\nimport matplotlib.pyplot as plt\n",
        "(x_train, y_train), (x_test, y_test) = imdb.load_data()\n",
        "def load_vector(path, dim=50):\nvec = {}\nlines = open(path, 'r', encoding='utf-8').readlines()\nfor line in lines:\nsp = line.split()\nvec[sp[0]] = np.array(sp[1:], dtype=float)\nreturn vec\ndef get_weights(vector, word_index):\nweights = np.zeros((len(word_index)+1, len(list(vector.values())[0])))\nfor word, idx in word_index.items():\nif word in vector:\nweights[idx] = vector[word]\nreturn weights\nglove = \"/Users/vaisakh/programs/Notebooks/dataset/glove.6B.50d.txt\"\nvocab = imdb.get_word_index()\nvector = load_vector(glove)\nweights = get_weights(vector, vocab)\n",
        "max_len = 100\nx_train = pad_sequences(x_train, max_len)\nx_test = pad_sequences(x_test, max_len)\n",
        "model = Sequential()\nmodel.add(Embedding(input_dim=len(vocab)+1, output_dim=50, input_length=max_len, weights=[weights], trainable=True))\nmodel.add(LSTM(units=20, return_sequences=True))\nmodel.add(Dropout(.2))\nmodel.add(LSTM(units=10, return_sequences=False))\nmodel.add(Dense(256, activation='relu'))\nmodel.add(Dropout(.2))\nmodel.add(Dense(128, activation='relu'))\nmodel.add(Dropout(.1))\nmodel.add(Dense(64, activation='relu'))\nmodel.add(Dense(32, activation='relu'))\nmodel.add(Dense(1, activation='sigmoid'))\n",
        "model.summary()\n",
        "model.compile(loss='binary_crossentropy', optimizer='adam', metrics=['accuracy'])\n",
        "history = model.fit(x_train, y_train, batch_size=100, epochs=5, validation_split=.2).history\n",
        "err, acc = model.evaluate(x_test, y_test)\nacc\n",
        "plt.style.use(\"ggplot\")\nplt.subplot(2,1,1)\nplt.title(\"crossentropy loss\")\nplt.plot(history['loss'], marker='o')\nplt.plot(history['val_loss'], marker='o')\nplt.tight_layout(pad=2)\nplt.subplot(2,1,2)\nplt.title(\"crossentropy accuracy\")\nplt.plot(history['accuracy'], marker='o')\nplt.plot(history['val_accuracy'], marker='o')\nplt.tight_layout(pad=2)\n"
    ],
    "movieReviews": [
        "#!/usr/bin/env python\n# coding: utf-8\n",
        "#Import libraries\nimport pandas as pd\nimport numpy as np\nfrom keras.layers import LSTM, Activation, Dropout, Dense, Input, Embedding\nfrom keras.models import Model\nimport string\nimport re\nfrom keras.preprocessing.text import Tokenizer\nfrom sklearn.preprocessing import LabelBinarizer\nfrom keras_preprocessing.sequence import pad_sequences\nimport keras\nfrom sklearn.model_selection import train_test_split\nfrom sklearn.preprocessing import LabelEncoder\n",
        "#Movie_reviews.ipynb\n# imdbds = pd.read_csv(\"/content/drive/MyDrive/Colab Notebooks/IMDB Dataset.csv\")\n# glove_ds = open('/content/drive/MyDrive/Colab Notebooks/glove.6B.50d.txt','r').read()\nimdbds = pd.read_csv(\"/Users/vaisakh/programs/Notebooks/dataset/IMDB Dataset.csv\")\nglove_ds = open('/Users/vaisakh/programs/Notebooks/dataset/glove.6B.50d.txt','r').read()\n",
        "imdbds['review'] =imdbds['review'].str.lower()\n",
        "imdbds.head()\n",
        "labelencoder = LabelEncoder()\nimdbds['sentiment'] = labelencoder.fit_transform(imdbds['sentiment'])\n",
        "imdbds.head()\n",
        "#Clean Data\nimport nltk\n# nltk.download('stopwords')\nfrom nltk.corpus import stopwords\nallstopwords=stopwords.words('english')\nimdbds['review']=imdbds['review'].apply(lambda x:\" \".join(i for i in x.split() if i not in allstopwords))\nimdbds['review']\n",
        "import re\nimdbds['review']=imdbds['review'].apply(lambda x:''.join(re.findall(r'[a-zA-Z+\" \"]',x)))\nimdbds['review']\n",
        "review_lst =(imdbds['review'].values).tolist()\nY =imdbds['sentiment'].values\n",
        "from sklearn.model_selection import train_test_split\nx_train, x_test, y_train, y_test = train_test_split(review_lst, Y, test_size = 0.2, random_state = 0)\n",
        "tokenizer = Tokenizer(num_words=5000)\ntokenizer.fit_on_texts(review_lst)\nwords_to_index = tokenizer.word_index\n",
        "# Load glove pretrained model\ndef read_glove_vector(glove_vec):\nwith open(glove_vec, 'r', encoding='UTF-8') as f:\nwords = set()\nword_to_vec_map = {}\nfor line in f:\nw_line = line.split()\ncurr_word = w_line[0]\nword_to_vec_map[curr_word] = np.array(w_line[1:], dtype=np.float64)\nreturn word_to_vec_map\nword_to_vec_map = read_glove_vector('../dataset/glove.6B.50d.txt')\n",
        "maxLen = 150\n",
        "word_to_vec_map\n",
        "# Generate glove vectors for each of the words in reviews\nvocab_len = len(words_to_index)\nembed_vector_len = word_to_vec_map['moon'].shape[0]\nemb_matrix = np.zeros((vocab_len, embed_vector_len))\nfor word, index in words_to_index.items():\nembedding_vector = word_to_vec_map.get(word)\nif embedding_vector is not None:\nemb_matrix[index, :] = embedding_vector\n",
        "word_to_vec_map['moon'].shape\n",
        "#Make the review sentences uniform length\nx_train_indices = tokenizer.texts_to_sequences(x_train)\nx_train_indices = pad_sequences(x_train_indices, maxlen=maxLen, padding='post')\nx_test_indices = tokenizer.texts_to_sequences(x_test)\nx_test_indices = pad_sequences(x_test_indices, maxlen=maxLen, padding='post')\n",
        "",
        "#Bild the model\nfrom keras.models import Sequential\nfrom keras import layers\nmodel = Sequential()\nmodel.add(layers.Embedding(input_dim=vocab_len, output_dim=embed_vector_len, input_length=maxLen, weights = [emb_matrix], trainable=False))\nmodel.add(layers.LSTM(128, return_sequences=True))\nmodel.add(layers.Dropout(0.2))\nmodel.add(layers.LSTM(128, return_sequences=True))\nmodel.add(layers.Dropout(0.2))\nmodel.add(layers.LSTM(128, return_sequences=True))\nmodel.add(layers.Dense(1, activation='sigmoid'))\nmodel.compile(optimizer='adam',\nloss='binary_crossentropy',\nmetrics=['accuracy'])\nmodel.summary()\n",
        "print(x_train_indices.shape)\nprint(y_train.shape)\n",
        "history = model.fit(x_train_indices, y_train,\nepochs=15,\nverbose=False,\nvalidation_data=(x_test_indices, y_test),\nbatch_size=64)\nloss, accuracy = model.evaluate(x_train_indices, y_train, verbose=False)\nprint(\"Training Accuracy: {:.4f}\".format(accuracy))\nloss, accuracy = model.evaluate(x_test_indices, y_test, verbose=False)\nprint(\"Testing Accuracy:  {:.4f}\".format(accuracy))\n",
        ""
    ],
    "textSummarization": [
        "#!/usr/bin/env python\n# coding: utf-8\n",
        "import nltk\nfrom nltk.corpus import stopwords\nfrom gensim.models import Word2Vec\nfrom nltk.tokenize import word_tokenize, sent_tokenize\nfrom sklearn.metrics.pairwise import cosine_similarity\n",
        "text = open(\"/Users/vaisakh/programs/Notebooks/dataset/news.txt\", \"r\").read().replace(\"\\n\\n\", \" \").replace(\"\\n\", \" \")\n# text = open(\"news2.txt\", \"r\").read().replace(\"\\n\\n\", \" \").replace(\"\\n\", \" \")\n",
        "def tokenize(text):\ntokenized_sentences = sent_tokenize(text)\ntokenized_words = []\nfor sentence in tokenized_sentences:\ntokenized_words_sub = []\nfor words in word_tokenize(sentence):\ntokenized_words_sub.append(words)\ntokenized_words.append(tokenized_words_sub)\nreturn (tokenized_words, tokenized_sentences)\ndef removeStopwords(text):\ntokenized_words = []\neng = set(stopwords.words(\"english\"))\nfor sentence in text:\ntokenized_words_sub = []\nfor word in sentence:\nif word not in eng:\ntokenized_words_sub.append(word)\ntokenized_words.append(tokenized_words_sub)\nreturn tokenized_words\ndef removePunch(text):\ntokenized_words = []\npunch = set(\"\"\"~!@#$%^&*()_+`-=}{|[]\\;'\":<>?,./\"\"\")\nfor sentence in text:\ntokenized_words_sub = []\nfor word in sentence:\nstr_word = \"\"\nfor chr in word:\nif chr not in punch:\nstr_word+=chr.lower()\nif len(str_word) > 1:\ntokenized_words_sub.append(str_word)\ntokenized_words.append(tokenized_words_sub)\nreturn tokenized_words\n",
        "tokenized_words, tokenized_sentences = tokenize(text)\ntokenized_words = removeStopwords(tokenized_words)\ntokenized_words = removePunch(tokenized_words)\n",
        "vec = Word2Vec(tokenized_words, window=1, min_count=1, vector_size=100, epochs=100, sg=1)\nprint(vec.wv.index_to_key)\n# <h3>Sentence vector</h3>\n",
        "sentence_vector = []\nfor sentence in tokenized_words:\nsum = 0\nfor word in sentence:\nsum+=vec.wv[word]\nsentence_vector.append(sum/len(sentence))\nlen(sentence_vector)\n# <h3>Cosin similarity</h3>\n",
        "cosineSimilarityVecotr = {}\nfor i in range(len(sentence_vector)):\nfor j in range(len(sentence_vector)):\nif i in cosineSimilarityVecotr:\ncosineSimilarityVecotr[i]+=cosine_similarity([sentence_vector[i]], [sentence_vector[j]])[0][0]\nelse:\ncosineSimilarityVecotr[i]=cosine_similarity([sentence_vector[i]], [sentence_vector[j]])[0][0]\ncosineSimilarityVecotr[i]/=len(sentence_vector[i])\ncosineSimilarityVecotr = [ [idx, sim] for idx, sim in  cosineSimilarityVecotr.items()]\n",
        "limit = 5\ndef comparator(x): return x[1]\ncosineSimilarityVecotr.sort(key=comparator)\ncosineSimilarityVecotr = cosineSimilarityVecotr[:5]\ncosineSimilarityVecotr.sort()\nfor idx, sim in cosineSimilarityVecotr:\nprint(tokenized_sentences[idx])\n",
        "from sklearn.decomposition import PCA\nimport matplotlib.pyplot as plt\nvocab = vec.wv.index_to_key\nx = vec.wv[vocab]\npca = PCA(n_components=2)\nres = pca.fit_transform(x)\nplt.scatter(res[:, 0], res[:, 1])\nfor i in range(len(vocab)):\nplt.annotate(vocab[i], xy=(res[i, 0], res[i, 1]))\n"
    ],
    "msg": "null"
}